HW10
…
安裝並執行tidyverse、lubridate、tidyquant、readxl、writexl

讀excel檔的程式readxl、writexl

bikes_tbl <- read_excel("bikes.xlsx")
bikeshops_tbl <- read_excel("bikeshops.xlsx")
orderlines_tbl <- read_excel("orderlines.xlsx")

## New names:
## * `` -> `..1`

bikes_tbl

## # A tibble: 97 x 4
##    bike.id model                          description                price
##      <dbl> <chr>                          <chr>                      <dbl>
##  1       1 Supersix Evo Black Inc.        Road - Elite Road - Carbon 12790
##  2       2 Supersix Evo Hi-Mod Team       Road - Elite Road - Carbon 10660
##  3       3 Supersix Evo Hi-Mod Dura Ace 1 Road - Elite Road - Carbon  7990
##  4       4 Supersix Evo Hi-Mod Dura Ace 2 Road - Elite Road - Carbon  5330
##  5       5 Supersix Evo Hi-Mod Utegra     Road - Elite Road - Carbon  4260
##  6       6 Supersix Evo Red               Road - Elite Road - Carbon  3940
##  7       7 Supersix Evo Ultegra 3         Road - Elite Road - Carbon  3200
##  8       8 Supersix Evo Ultegra 4         Road - Elite Road - Carbon  2660
##  9       9 Supersix Evo 105               Road - Elite Road - Carbon  2240
## 10      10 Supersix Evo Tiagra            Road - Elite Road - Carbon  1840
## # ... with 87 more rows
…
讀excel檔用read_excel

讀取bikes.xlsx、bikeshops.xlsx和

orderlines_tbl %>% glimpse() - 透過一個管道將orderlines_tbl丟到glimpse()中

bikes_tbl - 腳踏車型號資料

bikeshops_tbl - 腳踏車商家資料

orderlines_tbl - 腳踏車訂單編號資料

left_join(orderlines_tbl, bikes_tbl, by = c("product.id"="bike.id"))

## # A tibble: 15,644 x 10
##    ..1   order.id order.line order.date          customer.id product.id
##    <chr>    <dbl>      <dbl> <dttm>                    <dbl>      <dbl>
##  1 1            1          1 2011-01-07 00:00:00           2         48
##  2 2            1          2 2011-01-07 00:00:00           2         52
##  3 3            2          1 2011-01-10 00:00:00          10         76
##  4 4            2          2 2011-01-10 00:00:00          10         52
##  5 5            3          1 2011-01-10 00:00:00           6          2
##  6 6            3          2 2011-01-10 00:00:00           6         50
##  7 7            3          3 2011-01-10 00:00:00           6          1
##  8 8            3          4 2011-01-10 00:00:00           6          4
##  9 9            3          5 2011-01-10 00:00:00           6         34
## 10 10           4          1 2011-01-11 00:00:00          22         26
## # ... with 15,634 more rows, and 4 more variables: quantity <dbl>,
## #   model <chr>, description <chr>, price <dbl>

bikes_orderlines_joined_tbl<-orderlines_tbl %>% left_join(bikes_tbl, by = c("product.id" = "bike.id")) %>% 
    left_join(bikeshops_tbl, by = c("customer.id" = "bikeshop.id"))

bikes_orderlines_joined_tbl

## # A tibble: 15,644 x 12
##    ..1   order.id order.line order.date          customer.id product.id
##    <chr>    <dbl>      <dbl> <dttm>                    <dbl>      <dbl>
##  1 1            1          1 2011-01-07 00:00:00           2         48
##  2 2            1          2 2011-01-07 00:00:00           2         52
##  3 3            2          1 2011-01-10 00:00:00          10         76
##  4 4            2          2 2011-01-10 00:00:00          10         52
##  5 5            3          1 2011-01-10 00:00:00           6          2
##  6 6            3          2 2011-01-10 00:00:00           6         50
##  7 7            3          3 2011-01-10 00:00:00           6          1
##  8 8            3          4 2011-01-10 00:00:00           6          4
##  9 9            3          5 2011-01-10 00:00:00           6         34
## 10 10           4          1 2011-01-11 00:00:00          22         26
## # ... with 15,634 more rows, and 6 more variables: quantity <dbl>,
## #   model <chr>, description <chr>, price <dbl>, bikeshop.name <chr>,
## #   location <chr>

orderlines_tbl %>% left_join(bikes_tbl, by = c("product.id"="bike.id")) %>% 
                   left_join(bikeshops_tbl, by = c("customer.id" = "bikeshop.id"))

## # A tibble: 15,644 x 12
##    ..1   order.id order.line order.date          customer.id product.id
##    <chr>    <dbl>      <dbl> <dttm>                    <dbl>      <dbl>
##  1 1            1          1 2011-01-07 00:00:00           2         48
##  2 2            1          2 2011-01-07 00:00:00           2         52
##  3 3            2          1 2011-01-10 00:00:00          10         76
##  4 4            2          2 2011-01-10 00:00:00          10         52
##  5 5            3          1 2011-01-10 00:00:00           6          2
##  6 6            3          2 2011-01-10 00:00:00           6         50
##  7 7            3          3 2011-01-10 00:00:00           6          1
##  8 8            3          4 2011-01-10 00:00:00           6          4
##  9 9            3          5 2011-01-10 00:00:00           6         34
## 10 10           4          1 2011-01-11 00:00:00          22         26
## # ... with 15,634 more rows, and 6 more variables: quantity <dbl>,
## #   model <chr>, description <chr>, price <dbl>, bikeshop.name <chr>,
## #   location <chr>
…
lm - 回歸線/se - 標準差

對X Y軸命名(x = “” - 已經是年的資料所以用“”表示、y = “Revenue” - 名稱為收入)

sales_by_year_cat_2_tbl <- bike_orderlines_wrangled_tbl %>%
  select(order_date, total_price, category_2) %>%
  mutate(year = year(order_date)) %>%
  group_by(year, category_2) %>%
  summarise(sales = sum(total_price)) %>%
  ungroup() %>%
  mutate(sales_text = scales::dollar(sales))

sales_by_year_cat_2_tbl

## # A tibble: 45 x 4
##     year category_2           sales sales_text
##    <dbl> <chr>                <dbl> <chr>     
##  1  2011 Cross Country Race 2917250 $2,917,250
##  2  2011 Cyclocross          378980 $378,980  
##  3  2011 Elite Road         2493315 $2,493,315
##  4  2011 Endurance Road     1606230 $1,606,230
##  5  2011 Fat Bike            221600 $221,600  
##  6  2011 Over Mountain      1328510 $1,328,510
##  7  2011 Sport               309290 $309,290  
##  8  2011 Trail              1446560 $1,446,560
##  9  2011 Triathalon          591150 $591,150  
## 10  2012 Cross Country Race 3360800 $3,360,800
## # ... with 35 more rows
…
